<svg width="150" height="50" viewBox="0 0 150 50" fill="none" xmlns="http://www.w3.org/2000/svg">
<path d="M11.4446 2.8125C6.63784 2.8125 2.74669 6.79688 2.74669 11.7188C2.74669 16.6406 6.63784 20.7031 11.4446 20.7031C16.2513 20.7031 20.2187 16.7188 20.2187 11.7188C20.1424 6.79688 16.2513 2.8125 11.4446 2.8125ZM11.4446 23.4375C5.1119 23.4375 5.821e-07 18.2031 5.821e-07 11.7188C5.821e-07 5.23438 5.1119 0 11.4446 0C17.7772 0 22.8891 5.23438 22.8891 11.7188C22.8128 18.2031 17.7009 23.4375 11.4446 23.4375Z" transform="translate(24.1861 13.2812)" fill="black"/>
<path d="M11.4446 20.7031C6.63784 20.7031 2.6704 16.6406 2.6704 11.7188C2.6704 6.79688 6.56155 2.73438 11.3683 2.73438C16.175 2.73438 20.0661 6.71875 20.0661 11.7188C20.1424 16.6406 16.2513 20.7031 11.4446 20.7031ZM11.4446 0C7.93489 0 4.80671 1.64062 2.74669 4.14062V1.32813H0V36.7188H2.6704V19.2187C4.80671 21.7969 7.93489 23.4375 11.4446 23.4375C17.7772 23.4375 22.8891 18.2031 22.8891 11.7188C22.8891 5.23438 17.7009 0 11.4446 0Z" transform="translate(0 13.2812)" fill="black"/>
<path d="M2.6704 0H2.3284e-06V36.7188H2.6704V0Z" transform="translate(49.059)" fill="black"/>
<path d="M18.998 0L2.6704 16.7969V0H0V23.4375L22.8128 0H18.998Z" transform="translate(53.7894 13.2812)" fill="black"/>
<path d="M18.5402 11.25C19.532 12.7344 20.1424 14.4531 20.1424 16.4063C20.1424 21.3281 16.2513 25.3906 11.3683 25.3906C6.56155 25.3906 2.5941 21.4063 2.5941 16.4063C2.5941 11.4844 6.48525 7.42188 11.3683 7.42188C13.1994 7.42188 14.9542 8.04688 16.4039 9.0625C16.9379 8.51563 17.6246 7.8125 18.3113 7.10938C18.7691 6.64063 19.532 5.85938 20.0661 5.3125L22.2024 7.5L18.5402 11.25ZM27.3906 8.82812L18.7691 0L18.235 3.35938L15.9461 5.70312C14.5727 5.07812 13.0468 4.76563 11.4446 4.76563C5.1119 4.76563 -2.3284e-06 10 -2.3284e-06 16.4844C-2.3284e-06 22.9688 5.1119 28.2031 11.4446 28.2031C17.7772 28.2031 22.8891 22.9688 22.8891 16.4844C22.8891 14.8438 22.5839 13.2813 21.9735 11.875C22.7365 11.0938 23.4995 10.3125 24.2625 9.53125L27.3906 8.82812Z" transform="translate(122.609 8.59375)" fill="black"/>
<path d="M4.6568e-06 0.833151C4.6568e-06 4.50503 2.89929 7.47378 6.48525 7.47378C10.0712 7.47378 12.9705 4.50503 12.9705 0.833151C7.40082 4.66128 6.18007 -2.29185 4.6568e-06 0.833151Z" transform="translate(127.492 24.1668)" fill="#F26722"/>
<path d="M3.81485 1.95312C3.81485 0.859375 2.97559 0 1.90743 0C0.83927 0 2.3284e-06 0.859375 2.3284e-06 1.95312C2.3284e-06 3.04688 0.83927 3.90625 1.90743 3.90625C2.97559 3.90625 3.81485 3.04688 3.81485 1.95312Z" transform="translate(135.275 20.7031)" fill="#F26722"/>
<path d="M0 1.79688C0 2.8125 0.762973 3.59375 1.75483 3.59375C2.7467 3.59375 3.50967 2.8125 3.50967 1.79688C3.50967 0.78125 2.7467 0 1.75483 0C0.83927 0 0 0.78125 0 1.79688Z" transform="translate(146.109 9.375)" fill="#F26722"/>
<path d="M0 1.09375C0 1.71875 0.457778 2.1875 1.06815 2.1875C1.67853 2.1875 2.13632 1.71875 2.13632 1.09375C2.13632 0.546875 1.67853 1.49012e-07 1.06815 1.49012e-07C0.457778 1.49012e-07 0 0.46875 0 1.09375Z" transform="translate(146.872 6.48438)" fill="#F26722"/>
<path d="M6.48525 10.3125C4.50153 10.3125 2.89929 8.67188 2.89929 6.64062C2.89929 4.60938 4.50153 2.96875 6.48525 2.96875C8.46897 2.96875 10.0712 4.60938 10.0712 6.64062C10.0712 8.67188 8.46897 10.3125 6.48525 10.3125ZM6.48525 0C2.89929 0 2.3284e-06 2.96875 2.3284e-06 6.64062C2.3284e-06 10.3125 2.89929 13.2812 6.48525 13.2812C10.0712 13.2812 12.9705 10.3125 12.9705 6.64062C12.9705 2.96875 10.0712 0 6.48525 0Z" transform="translate(77.6704 18.3594)" fill="#1ED699"/>
<path d="M14.649 20.625C9.84232 20.625 5.87488 16.6406 5.87488 11.6406C5.87488 6.71875 9.76602 2.65625 14.649 2.65625C19.4557 2.65625 23.4232 6.64062 23.4232 11.6406C23.4232 16.6406 19.4557 20.625 14.649 20.625ZM14.649 0C8.31638 0 3.20448 5.23438 3.20448 11.7188C3.20448 14.375 4.12004 16.875 5.56969 18.8281L-1.1642e-06 24.5313L2.13632 26.7188L7.706 21.0156C9.61343 22.5 12.0549 23.4375 14.649 23.4375C20.9817 23.4375 26.0936 18.2031 26.0936 11.7188C26.0936 5.23438 20.9817 0 14.649 0Z" transform="translate(69.5066 13.2812)" fill="black"/>
<path d="M11.4446 20.7031C6.63784 20.7031 2.6704 16.6406 2.6704 11.7188C2.6704 6.79688 6.63784 2.73437 11.4446 2.73437C16.2513 2.73437 20.2187 6.79688 20.2187 11.7188C20.2187 16.7188 16.2513 20.7031 11.4446 20.7031ZM11.4446 -2.98023e-07C5.1119 -2.98023e-07 0 5.23438 0 11.7188C0 18.2031 5.1119 23.4375 11.4446 23.4375C17.7772 23.4375 22.8891 18.2031 22.8891 11.7188C22.8891 5.3125 17.7772 -2.98023e-07 11.4446 -2.98023e-07Z" transform="translate(97.6602 13.2031)" fill="black"/>
<path d="M4.95931 0H2.3284e-06V2.73438H4.95931V0Z" transform="translate(106.663 9.21875)" fill="black"/>
<path d="M2.70259 0H2.35647e-06V5.01905H2.70259V0Z" transform="translate(116.333 13.9068) scale(0.988084 1.01176) rotate(-45.0083)" fill="black"/>
<path d="M7.32452 7.57812C6.86674 8.04687 6.10376 8.04687 5.64598 7.57812C5.18819 7.10937 5.18819 6.32812 5.64598 5.85937C6.10376 5.39062 9.84231 3.28125 9.84231 3.28125C9.84231 3.28125 7.7823 7.03125 7.32452 7.57812ZM6.48525 -2.98023e-07C2.89929 -2.98023e-07 0 2.96875 0 6.64062C0 10.3125 2.89929 13.2813 6.48525 13.2813C10.0712 13.2813 12.9705 10.3125 12.9705 6.64062C13.0468 2.96875 10.0712 -2.98023e-07 6.48525 -2.98023e-07Z" transform="translate(102.62 18.2812)" fill="#6D41D8"/>
</svg>
